Reproducible Research: Peer Assessment 1
…
2. Make a panel plot.

summ_days <- data_NA %>% 
  group_by(interval, days) %>% 
  summarize(Average = mean(steps_fill))
summ_days

## # A tibble: 576 x 3
## # Groups:   interval [288]
##    interval days    Average
##    <fct>    <fct>     <dbl>
##  1 0        weekend 0.215  
##  2 0        weekday 2.25   
##  3 5        weekend 0.0425 
##  4 5        weekday 0.445  
##  5 10       weekend 0.0165 
##  6 10       weekday 0.173  
##  7 15       weekend 0.0189 
##  8 15       weekday 0.198  
##  9 20       weekend 0.00943
## 10 20       weekday 0.0990 
## #  with 566 more rows
…
